…
* Counts of that artist per endDate through time


```r
stream_data %>% mutate(date = str_sub(endTime, 1, 10)) %>% 
    # this is a shortcut subquery, technically
    filter(artistName %in% res_freq_artists$artistName) %>% 
    # 
    group_by(date, artistName) %>% 
    count %>% 
    arrange(desc(n))
```

```
## # A tibble: 312 x 3
## # Groups:   date, artistName [312]
##    date       artistName          n
##    <chr>      <chr>           <int>
##  1 2021-01-07 Kowloon           216
##  2 2021-04-08 MadeinTYO         145
##  3 2021-01-24 No Vacation       142
##  4 2021-05-06 Modern Baseball   139
##  5 2021-01-28 No Vacation       120
##  6 2021-01-26 No Vacation        98
##  7 2021-08-26 No Vacation        91
##  8 2021-09-23 Dayglow            90
##  9 2020-12-10 Current Joys       88
## 10 2021-01-27 No Vacation        83
## # ... with 302 more rows
```
…
